{
  "name": "foodfacts-analytics",
  "authors": ["Alex Herrmann"],
  "description": "Looking into world food facts with a dataset from kaggle.com. My first foray into plotting, etc.",
  "copyright": "Copyright © 2016, Alex Herrmann",
  "license": "open",
  "dependencies": {
    "ggplotd": "~>1.1.0"
  }
}
