{
	"fileVersion": 1,
	"versions": {
		"cairod": "0.0.1-alpha.3+1.10.2",
		"color": "0.0.5",
		"ddbc": "0.3.2",
		"derelict-ft": "1.0.2",
		"derelict-pq": "2.0.3",
		"derelict-util": "2.0.6",
		"dstats": "1.0.3",
		"dunit": "1.0.14",
		"ggplotd": "1.1.1",
		"gtk-d": "3.3.1",
		"mysql-native": "0.1.6",
		"painlesstraits": "0.2.0",
		"windows-headers": "1.0.1",
		"x11": "1.0.16"
	}
}
